%YAML 1.1
%TAG !u! tag:unity3d.com,2011:
--- !u!1045 &1
EditorBuildSettings:
  m_ObjectHideFlags: 0
  serializedVersion: 2
  m_Scenes:
  - enabled: 1
    path: Assets/Scenes/Menu.unity
    guid: ccb7cec723e5b5247ba9f7232a6a2c9b
  - enabled: 1
    path: Assets/Scenes/Authors.unity
    guid: f0a555c2e1d35654d94203b9ff5994f6
  - enabled: 1
    path: Assets/Scenes/Instruction.unity
    guid: 5493ca87e17801e43a4bf98a1470b400
  - enabled: 1
    path: Assets/Scenes/Level01.unity
    guid: 59972b4bdb07ad54ca81d747f06f1093
  m_configObjects: {}
